	MSI Key	STR Key	Probability	Stable
0	MSI-1	STR1	0.07946513842717517	Нестабильный
1	MSI-1	STR2	0.07946513842717517	Нестабильный
2	MSI-1	STR3	0.07946513842717517	Нестабильный
3	MSI-1	STR4	0.07946513842717517	Нестабильный
4	MSI-1	STR5	0.07946513842717517	Нестабильный
5	MSI-1	STR6	0.07946513842717517	Нестабильный
6	MSI-1	STR7	0.07946513842717517	Нестабильный
7	MSI-1	STR8	0.07946513842717517	Нестабильный
8	MSI-1	STR9	0.07946513842717517	Нестабильный
9	MSI-1	STR10	0.07946513842717517	Нестабильный
10	MSI-1	STR11	0.07946513842717517	Нестабильный
11	MSI-1	STR12	0.07946513842717517	Нестабильный
12	MSI-1	STR13	0.07946513842717517	Нестабильный
13	MSI-1	STR14	0.07946513842717517	Нестабильный
14	MSI-1	STR15	0.07946513842717517	Нестабильный
15	MSI-1	STR16	0.07946513842717517	Нестабильный
16	MSI-1	STR17	0.07946513842717517	Нестабильный
17	MSI-1	STR18	0.07717464374910932	Нестабильный
18	MSI-1	STR19	0.07946513842717517	Нестабильный
19	MSI-1	STR20	0.07946513842717517	Нестабильный
20	MSI-1	STR21	0.07946513842717517	Нестабильный
21	MSI-1	STR22	0.07946513842717517	Нестабильный
22	MSI-1	STR23	0.07946513842717517	Нестабильный
23	MSI-1	STR24	0.07946513842717517	Нестабильный
24	MSI-1	STR25	0.07946513842717517	Нестабильный
25	MSI-1	STR26	0.07946513842717517	Нестабильный
26	MSI-1	STR27	0.07946513842717517	Нестабильный
27	MSI-1	STR28	0.07946513842717517	Нестабильный
28	MSI-1	STR29	0.07946513842717517	Нестабильный
29	MSI-1	STR30	0.07946513842717517	Нестабильный
30	MSI-1	STR31	0.07946513842717517	Нестабильный
31	MSI-1	STR32	0.07946513842717517	Нестабильный
32	MSI-1	STR33	0.07946513842717517	Нестабильный
33	MSI-2	STR1	0.07946513842717517	Нестабильный
34	MSI-2	STR2	0.07946513842717517	Нестабильный
35	MSI-2	STR3	0.07946513842717517	Нестабильный
36	MSI-2	STR4	0.07946513842717517	Нестабильный
37	MSI-2	STR5	0.07946513842717517	Нестабильный
38	MSI-2	STR6	0.07946513842717517	Нестабильный
39	MSI-2	STR7	0.07946513842717517	Нестабильный
40	MSI-2	STR8	0.07946513842717517	Нестабильный
41	MSI-2	STR9	0.07946513842717517	Нестабильный
42	MSI-2	STR10	0.07946513842717517	Нестабильный
43	MSI-2	STR11	0.07946513842717517	Нестабильный
44	MSI-2	STR12	0.07946513842717517	Нестабильный
45	MSI-2	STR13	0.07946513842717517	Нестабильный
46	MSI-2	STR14	0.07704403104411084	Нестабильный
47	MSI-2	STR15	0.07946513842717517	Нестабильный
48	MSI-2	STR16	0.07946513842717517	Нестабильный
49	MSI-2	STR17	0.07946513842717517	Нестабильный
50	MSI-2	STR18	0.07946513842717517	Нестабильный
51	MSI-2	STR19	0.07946513842717517	Нестабильный
52	MSI-2	STR20	0.07946513842717517	Нестабильный
53	MSI-2	STR21	0.07946513842717517	Нестабильный
54	MSI-2	STR22	0.07946513842717517	Нестабильный
55	MSI-2	STR23	0.07946513842717517	Нестабильный
56	MSI-2	STR24	0.07946513842717517	Нестабильный
57	MSI-2	STR25	0.07946513842717517	Нестабильный
58	MSI-2	STR26	0.07946513842717517	Нестабильный
59	MSI-2	STR27	0.07946513842717517	Нестабильный
60	MSI-2	STR28	0.07946513842717517	Нестабильный
61	MSI-2	STR29	0.07946513842717517	Нестабильный
62	MSI-2	STR30	0.07946513842717517	Нестабильный
63	MSI-2	STR31	0.07946513842717517	Нестабильный
64	MSI-2	STR32	0.07946513842717517	Нестабильный
65	MSI-2	STR33	0.07946513842717517	Нестабильный
66	MSI-3	STR1	0.07946513842717517	Нестабильный
67	MSI-3	STR2	0.07946513842717517	Нестабильный
68	MSI-3	STR3	0.07946513842717517	Нестабильный
69	MSI-3	STR4	0.07946513842717517	Нестабильный
70	MSI-3	STR5	0.07946513842717517	Нестабильный
71	MSI-3	STR6	0.07946513842717517	Нестабильный
72	MSI-3	STR7	0.07946513842717517	Нестабильный
73	MSI-3	STR8	0.07946513842717517	Нестабильный
74	MSI-3	STR9	0.07946513842717517	Нестабильный
75	MSI-3	STR10	0.07946513842717517	Нестабильный
76	MSI-3	STR11	0.07946513842717517	Нестабильный
77	MSI-3	STR12	0.07946513842717517	Нестабильный
78	MSI-3	STR13	0.07946513842717517	Нестабильный
79	MSI-3	STR14	0.045470591177078634	Стабильный
80	MSI-3	STR15	0.07946513842717517	Нестабильный
81	MSI-3	STR16	0.07946513842717517	Нестабильный
82	MSI-3	STR17	0.07946513842717517	Нестабильный
83	MSI-3	STR18	0.07946513842717517	Нестабильный
84	MSI-3	STR19	0.07946513842717517	Нестабильный
85	MSI-3	STR20	0.07946513842717517	Нестабильный
86	MSI-3	STR21	0.07946513842717517	Нестабильный
87	MSI-3	STR22	0.07946513842717517	Нестабильный
88	MSI-3	STR23	0.07946513842717517	Нестабильный
89	MSI-3	STR24	0.07946513842717517	Нестабильный
90	MSI-3	STR25	0.07946513842717517	Нестабильный
91	MSI-3	STR26	0.07946513842717517	Нестабильный
92	MSI-3	STR27	0.07946513842717517	Нестабильный
93	MSI-3	STR28	0.07946513842717517	Нестабильный
94	MSI-3	STR29	0.07946513842717517	Нестабильный
95	MSI-3	STR30	0.07946513842717517	Нестабильный
96	MSI-3	STR31	0.07946513842717517	Нестабильный
97	MSI-3	STR32	0.07946513842717517	Нестабильный
98	MSI-3	STR33	0.07946513842717517	Нестабильный
99	MSI-4	STR1	0.07946513842717517	Нестабильный
100	MSI-4	STR2	0.07946513842717517	Нестабильный
101	MSI-4	STR3	0.07946513842717517	Нестабильный
102	MSI-4	STR4	0.07946513842717517	Нестабильный
103	MSI-4	STR5	0.07946513842717517	Нестабильный
104	MSI-4	STR6	0.07946513842717517	Нестабильный
105	MSI-4	STR7	0.07946513842717517	Нестабильный
106	MSI-4	STR8	0.07946513842717517	Нестабильный
107	MSI-4	STR9	0.07946513842717517	Нестабильный
108	MSI-4	STR10	0.07946513842717517	Нестабильный
109	MSI-4	STR11	0.07946513842717517	Нестабильный
110	MSI-4	STR12	0.07946513842717517	Нестабильный
111	MSI-4	STR13	0.07946513842717517	Нестабильный
112	MSI-4	STR14	0.07946513842717517	Нестабильный
113	MSI-4	STR15	0.07946513842717517	Нестабильный
114	MSI-4	STR16	0.07946513842717517	Нестабильный
115	MSI-4	STR17	0.07946513842717517	Нестабильный
116	MSI-4	STR18	0.07946513842717517	Нестабильный
117	MSI-4	STR19	0.07946513842717517	Нестабильный
118	MSI-4	STR20	0.07946513842717517	Нестабильный
119	MSI-4	STR21	0.07946513842717517	Нестабильный
120	MSI-4	STR22	0.07946513842717517	Нестабильный
121	MSI-4	STR23	0.07946513842717517	Нестабильный
122	MSI-4	STR24	0.07946513842717517	Нестабильный
123	MSI-4	STR25	0.07946513842717517	Нестабильный
124	MSI-4	STR26	0.07946513842717517	Нестабильный
125	MSI-4	STR27	0.07946513842717517	Нестабильный
126	MSI-4	STR28	0.07946513842717517	Нестабильный
127	MSI-4	STR29	0.07946513842717517	Нестабильный
128	MSI-4	STR30	0.07946513842717517	Нестабильный
129	MSI-4	STR31	0.07946513842717517	Нестабильный
130	MSI-4	STR32	0.07946513842717517	Нестабильный
131	MSI-4	STR33	0.07946513842717517	Нестабильный
132	MSI-5	STR1	0.07946513842717517	Нестабильный
133	MSI-5	STR2	0.07946513842717517	Нестабильный
134	MSI-5	STR3	0.07946513842717517	Нестабильный
135	MSI-5	STR4	0.07946513842717517	Нестабильный
136	MSI-5	STR5	0.07946513842717517	Нестабильный
137	MSI-5	STR6	0.07946513842717517	Нестабильный
138	MSI-5	STR7	0.07946513842717517	Нестабильный
139	MSI-5	STR8	0.07946513842717517	Нестабильный
140	MSI-5	STR9	0.07946513842717517	Нестабильный
141	MSI-5	STR10	0.07946513842717517	Нестабильный
142	MSI-5	STR11	0.07946513842717517	Нестабильный
143	MSI-5	STR12	0.07946513842717517	Нестабильный
144	MSI-5	STR13	0.07946513842717517	Нестабильный
145	MSI-5	STR14	0.07946513842717517	Нестабильный
146	MSI-5	STR15	0.07946513842717517	Нестабильный
147	MSI-5	STR16	0.07946513842717517	Нестабильный
148	MSI-5	STR17	0.07946513842717517	Нестабильный
149	MSI-5	STR18	0.07946513842717517	Нестабильный
150	MSI-5	STR19	0.07946513842717517	Нестабильный
151	MSI-5	STR20	0.07946513842717517	Нестабильный
152	MSI-5	STR21	0.07946513842717517	Нестабильный
153	MSI-5	STR22	0.07946513842717517	Нестабильный
154	MSI-5	STR23	0.07946513842717517	Нестабильный
155	MSI-5	STR24	0.07946513842717517	Нестабильный
156	MSI-5	STR25	0.07946513842717517	Нестабильный
157	MSI-5	STR26	0.07946513842717517	Нестабильный
158	MSI-5	STR27	0.07946513842717517	Нестабильный
159	MSI-5	STR28	0.07946513842717517	Нестабильный
160	MSI-5	STR29	0.07946513842717517	Нестабильный
161	MSI-5	STR30	0.07946513842717517	Нестабильный
162	MSI-5	STR31	0.07946513842717517	Нестабильный
163	MSI-5	STR32	0.07946513842717517	Нестабильный
164	MSI-5	STR33	0.07946513842717517	Нестабильный
165	MSI-6	STR1	0.07946513842717517	Нестабильный
166	MSI-6	STR2	0.07946513842717517	Нестабильный
167	MSI-6	STR3	0.07927316476109114	Нестабильный
168	MSI-6	STR4	0.07946513842717517	Нестабильный
169	MSI-6	STR5	0.07946513842717517	Нестабильный
170	MSI-6	STR6	0.07946513842717517	Нестабильный
171	MSI-6	STR7	0.07946513842717517	Нестабильный
172	MSI-6	STR8	0.07946513842717517	Нестабильный
173	MSI-6	STR9	0.07946513842717517	Нестабильный
174	MSI-6	STR10	0.07946513842717517	Нестабильный
175	MSI-6	STR11	0.07946513842717517	Нестабильный
176	MSI-6	STR12	0.07946513842717517	Нестабильный
177	MSI-6	STR13	0.07946513842717517	Нестабильный
178	MSI-6	STR14	0.07946513842717517	Нестабильный
179	MSI-6	STR15	0.07946513842717517	Нестабильный
180	MSI-6	STR16	0.07946513842717517	Нестабильный
181	MSI-6	STR17	0.07946513842717517	Нестабильный
182	MSI-6	STR18	0.07946513842717517	Нестабильный
183	MSI-6	STR19	0.07946513842717517	Нестабильный
184	MSI-6	STR20	0.07946513842717517	Нестабильный
185	MSI-6	STR21	0.07946513842717517	Нестабильный
186	MSI-6	STR22	0.07946513842717517	Нестабильный
187	MSI-6	STR23	0.07946513842717517	Нестабильный
188	MSI-6	STR24	0.07946513842717517	Нестабильный
189	MSI-6	STR25	0.07946513842717517	Нестабильный
190	MSI-6	STR26	0.07946513842717517	Нестабильный
191	MSI-6	STR27	0.07946513842717517	Нестабильный
192	MSI-6	STR28	0.07946513842717517	Нестабильный
193	MSI-6	STR29	0.07946513842717517	Нестабильный
194	MSI-6	STR30	0.07946513842717517	Нестабильный
195	MSI-6	STR31	0.07946513842717517	Нестабильный
196	MSI-6	STR32	0.07946513842717517	Нестабильный
197	MSI-6	STR33	0.07946513842717517	Нестабильный
198	MSI-7	STR1	0.07946513842717517	Нестабильный
199	MSI-7	STR2	0.07946513842717517	Нестабильный
200	MSI-7	STR3	0.07946513842717517	Нестабильный
201	MSI-7	STR4	0.07946513842717517	Нестабильный
202	MSI-7	STR5	0.07946513842717517	Нестабильный
203	MSI-7	STR6	0.07946513842717517	Нестабильный
204	MSI-7	STR7	0.07946513842717517	Нестабильный
205	MSI-7	STR8	0.07946513842717517	Нестабильный
206	MSI-7	STR9	0.07946513842717517	Нестабильный
207	MSI-7	STR10	0.07946513842717517	Нестабильный
208	MSI-7	STR11	0.07946513842717517	Нестабильный
209	MSI-7	STR12	0.07946513842717517	Нестабильный
210	MSI-7	STR13	0.07946513842717517	Нестабильный
211	MSI-7	STR14	0.07946513842717517	Нестабильный
212	MSI-7	STR15	0.07946513842717517	Нестабильный
213	MSI-7	STR16	0.07946513842717517	Нестабильный
214	MSI-7	STR17	0.07946513842717517	Нестабильный
215	MSI-7	STR18	0.07946513842717517	Нестабильный
216	MSI-7	STR19	0.07946513842717517	Нестабильный
217	MSI-7	STR20	0.07946513842717517	Нестабильный
218	MSI-7	STR21	0.07946513842717517	Нестабильный
219	MSI-7	STR22	0.07946513842717517	Нестабильный
220	MSI-7	STR23	0.07946513842717517	Нестабильный
221	MSI-7	STR24	0.07946513842717517	Нестабильный
222	MSI-7	STR25	0.07946513842717517	Нестабильный
223	MSI-7	STR26	0.07946513842717517	Нестабильный
224	MSI-7	STR27	0.07946513842717517	Нестабильный
225	MSI-7	STR28	0.07946513842717517	Нестабильный
226	MSI-7	STR29	0.07946513842717517	Нестабильный
227	MSI-7	STR30	0.07946513842717517	Нестабильный
228	MSI-7	STR31	0.07946513842717517	Нестабильный
229	MSI-7	STR32	0.07946513842717517	Нестабильный
230	MSI-7	STR33	0.07946513842717517	Нестабильный
231	MSI-8	STR1	0.07946513842717517	Нестабильный
232	MSI-8	STR2	0.07946513842717517	Нестабильный
233	MSI-8	STR3	0.07946513842717517	Нестабильный
234	MSI-8	STR4	0.07946513842717517	Нестабильный
235	MSI-8	STR5	0.07946513842717517	Нестабильный
236	MSI-8	STR6	0.07946513842717517	Нестабильный
237	MSI-8	STR7	0.07946513842717517	Нестабильный
238	MSI-8	STR8	0.07946513842717517	Нестабильный
239	MSI-8	STR9	0.07946513842717517	Нестабильный
240	MSI-8	STR10	0.07946513842717517	Нестабильный
241	MSI-8	STR11	0.07946513842717517	Нестабильный
242	MSI-8	STR12	0.07946513842717517	Нестабильный
243	MSI-8	STR13	0.07946513842717517	Нестабильный
244	MSI-8	STR14	0.07946513842717517	Нестабильный
245	MSI-8	STR15	0.07946513842717517	Нестабильный
246	MSI-8	STR16	0.07946513842717517	Нестабильный
247	MSI-8	STR17	0.07946513842717517	Нестабильный
248	MSI-8	STR18	0.07946513842717517	Нестабильный
249	MSI-8	STR19	0.07946513842717517	Нестабильный
250	MSI-8	STR20	0.07946513842717517	Нестабильный
251	MSI-8	STR21	0.07946513842717517	Нестабильный
252	MSI-8	STR22	0.07946513842717517	Нестабильный
253	MSI-8	STR23	0.07946513842717517	Нестабильный
254	MSI-8	STR24	0.07946513842717517	Нестабильный
255	MSI-8	STR25	0.07946513842717517	Нестабильный
256	MSI-8	STR26	0.07946513842717517	Нестабильный
257	MSI-8	STR27	0.07946513842717517	Нестабильный
258	MSI-8	STR28	0.07946513842717517	Нестабильный
259	MSI-8	STR29	0.07946513842717517	Нестабильный
260	MSI-8	STR30	0.07946513842717517	Нестабильный
261	MSI-8	STR31	0.07946513842717517	Нестабильный
262	MSI-8	STR32	0.07946513842717517	Нестабильный
263	MSI-8	STR33	0.07946513842717517	Нестабильный
264	MSI-9	STR1	0.07946513842717517	Нестабильный
265	MSI-9	STR2	0.07946513842717517	Нестабильный
266	MSI-9	STR3	0.07946513842717517	Нестабильный
267	MSI-9	STR4	0.07946513842717517	Нестабильный
268	MSI-9	STR5	0.07946513842717517	Нестабильный
269	MSI-9	STR6	0.07946513842717517	Нестабильный
270	MSI-9	STR7	0.07946513842717517	Нестабильный
271	MSI-9	STR8	0.07946513842717517	Нестабильный
272	MSI-9	STR9	0.07946513842717517	Нестабильный
273	MSI-9	STR10	0.07946513842717517	Нестабильный
274	MSI-9	STR11	0.07946513842717517	Нестабильный
275	MSI-9	STR12	0.07946513842717517	Нестабильный
276	MSI-9	STR13	0.07946513842717517	Нестабильный
277	MSI-9	STR14	0.07014081882114098	Нестабильный
278	MSI-9	STR15	0.07946513842717517	Нестабильный
279	MSI-9	STR16	0.07946513842717517	Нестабильный
280	MSI-9	STR17	0.07946513842717517	Нестабильный
281	MSI-9	STR18	0.07946513842717517	Нестабильный
282	MSI-9	STR19	0.07946513842717517	Нестабильный
283	MSI-9	STR20	0.07946513842717517	Нестабильный
284	MSI-9	STR21	0.07946513842717517	Нестабильный
285	MSI-9	STR22	0.07946513842717517	Нестабильный
286	MSI-9	STR23	0.07946513842717517	Нестабильный
287	MSI-9	STR24	0.07946513842717517	Нестабильный
288	MSI-9	STR25	0.07946513842717517	Нестабильный
289	MSI-9	STR26	0.07946513842717517	Нестабильный
290	MSI-9	STR27	0.07946513842717517	Нестабильный
291	MSI-9	STR28	0.07641275050869212	Нестабильный
292	MSI-9	STR29	0.07946513842717517	Нестабильный
293	MSI-9	STR30	0.07946513842717517	Нестабильный
294	MSI-9	STR31	0.07946513842717517	Нестабильный
295	MSI-9	STR32	0.07946513842717517	Нестабильный
296	MSI-9	STR33	0.07946513842717517	Нестабильный
297	MSI-10	STR1	0.07946513842717517	Нестабильный
298	MSI-10	STR2	0.07946513842717517	Нестабильный
299	MSI-10	STR3	0.07946513842717517	Нестабильный
300	MSI-10	STR4	0.07946513842717517	Нестабильный
301	MSI-10	STR5	0.07946513842717517	Нестабильный
302	MSI-10	STR6	0.07946513842717517	Нестабильный
303	MSI-10	STR7	0.07946513842717517	Нестабильный
304	MSI-10	STR8	0.07946513842717517	Нестабильный
305	MSI-10	STR9	0.07946513842717517	Нестабильный
306	MSI-10	STR10	0.07946513842717517	Нестабильный
307	MSI-10	STR11	0.07946513842717517	Нестабильный
308	MSI-10	STR12	0.07946513842717517	Нестабильный
309	MSI-10	STR13	0.07946513842717517	Нестабильный
310	MSI-10	STR14	0.07946513842717517	Нестабильный
311	MSI-10	STR15	0.07946513842717517	Нестабильный
312	MSI-10	STR16	0.07946513842717517	Нестабильный
313	MSI-10	STR17	0.07946513842717517	Нестабильный
314	MSI-10	STR18	0.07946513842717517	Нестабильный
315	MSI-10	STR19	0.07946513842717517	Нестабильный
316	MSI-10	STR20	0.07946513842717517	Нестабильный
317	MSI-10	STR21	0.07946513842717517	Нестабильный
318	MSI-10	STR22	0.07946513842717517	Нестабильный
319	MSI-10	STR23	0.07946513842717517	Нестабильный
320	MSI-10	STR24	0.07946513842717517	Нестабильный
321	MSI-10	STR25	0.07946513842717517	Нестабильный
322	MSI-10	STR26	0.07946513842717517	Нестабильный
323	MSI-10	STR27	0.07946513842717517	Нестабильный
324	MSI-10	STR28	0.07946513842717517	Нестабильный
325	MSI-10	STR29	0.07946513842717517	Нестабильный
326	MSI-10	STR30	0.07946513842717517	Нестабильный
327	MSI-10	STR31	0.07946513842717517	Нестабильный
328	MSI-10	STR32	0.07946513842717517	Нестабильный
329	MSI-10	STR33	0.07946513842717517	Нестабильный
330	MSI-11	STR1	0.07946513842717517	Нестабильный
331	MSI-11	STR2	0.07946513842717517	Нестабильный
332	MSI-11	STR3	0.07946513842717517	Нестабильный
333	MSI-11	STR4	0.07946513842717517	Нестабильный
334	MSI-11	STR5	0.07946513842717517	Нестабильный
335	MSI-11	STR6	0.07946513842717517	Нестабильный
336	MSI-11	STR7	0.07946513842717517	Нестабильный
337	MSI-11	STR8	0.07946513842717517	Нестабильный
338	MSI-11	STR9	0.07946513842717517	Нестабильный
339	MSI-11	STR10	0.07946513842717517	Нестабильный
340	MSI-11	STR11	0.07946513842717517	Нестабильный
341	MSI-11	STR12	0.07946513842717517	Нестабильный
342	MSI-11	STR13	0.07946513842717517	Нестабильный
343	MSI-11	STR14	0.07946513842717517	Нестабильный
344	MSI-11	STR15	0.07946513842717517	Нестабильный
345	MSI-11	STR16	0.07946513842717517	Нестабильный
346	MSI-11	STR17	0.07946513842717517	Нестабильный
347	MSI-11	STR18	0.07946513842717517	Нестабильный
348	MSI-11	STR19	0.07946513842717517	Нестабильный
349	MSI-11	STR20	0.07946513842717517	Нестабильный
350	MSI-11	STR21	0.07946513842717517	Нестабильный
351	MSI-11	STR22	0.07946513842717517	Нестабильный
352	MSI-11	STR23	0.07946513842717517	Нестабильный
353	MSI-11	STR24	0.07946513842717517	Нестабильный
354	MSI-11	STR25	0.07946513842717517	Нестабильный
355	MSI-11	STR26	0.07946513842717517	Нестабильный
356	MSI-11	STR27	0.07946513842717517	Нестабильный
357	MSI-11	STR28	0.07946513842717517	Нестабильный
358	MSI-11	STR29	0.07946513842717517	Нестабильный
359	MSI-11	STR30	0.07946513842717517	Нестабильный
360	MSI-11	STR31	0.07946513842717517	Нестабильный
361	MSI-11	STR32	0.07946513842717517	Нестабильный
362	MSI-11	STR33	0.07946513842717517	Нестабильный
363	MSI-12	STR1	0.07946513842717517	Нестабильный
364	MSI-12	STR2	0.07946513842717517	Нестабильный
365	MSI-12	STR3	0.07946513842717517	Нестабильный
366	MSI-12	STR4	0.07946513842717517	Нестабильный
367	MSI-12	STR5	0.07946513842717517	Нестабильный
368	MSI-12	STR6	0.07946513842717517	Нестабильный
369	MSI-12	STR7	0.07946513842717517	Нестабильный
370	MSI-12	STR8	0.07946513842717517	Нестабильный
371	MSI-12	STR9	0.07946513842717517	Нестабильный
372	MSI-12	STR10	0.07946513842717517	Нестабильный
373	MSI-12	STR11	0.07946513842717517	Нестабильный
374	MSI-12	STR12	0.07946513842717517	Нестабильный
375	MSI-12	STR13	0.07946513842717517	Нестабильный
376	MSI-12	STR14	0.07188499658092018	Нестабильный
377	MSI-12	STR15	0.07946513842717517	Нестабильный
378	MSI-12	STR16	0.07946513842717517	Нестабильный
379	MSI-12	STR17	0.07946513842717517	Нестабильный
380	MSI-12	STR18	0.07946513842717517	Нестабильный
381	MSI-12	STR19	0.07946513842717517	Нестабильный
382	MSI-12	STR20	0.07946513842717517	Нестабильный
383	MSI-12	STR21	0.07946513842717517	Нестабильный
384	MSI-12	STR22	0.07946513842717517	Нестабильный
385	MSI-12	STR23	0.07946513842717517	Нестабильный
386	MSI-12	STR24	0.07946513842717517	Нестабильный
387	MSI-12	STR25	0.07946513842717517	Нестабильный
388	MSI-12	STR26	0.07946513842717517	Нестабильный
389	MSI-12	STR27	0.07946513842717517	Нестабильный
390	MSI-12	STR28	0.07740679605592693	Нестабильный
391	MSI-12	STR29	0.07946513842717517	Нестабильный
392	MSI-12	STR30	0.07946513842717517	Нестабильный
393	MSI-12	STR31	0.07946513842717517	Нестабильный
394	MSI-12	STR32	0.07946513842717517	Нестабильный
395	MSI-12	STR33	0.07946513842717517	Нестабильный
